%YAML 1.1
%TAG !u! tag:unity3d.com,2011:
--- !u!74 &7400000
AnimationClip:
  m_ObjectHideFlags: 0
  m_CorrespondingSourceObject: {fileID: 0}
  m_PrefabInstance: {fileID: 0}
  m_PrefabAsset: {fileID: 0}
  m_Name: Link_011_motion_walk
  serializedVersion: 6
  m_Legacy: 0
  m_Compressed: 0
  m_UseHighQualityCurve: 1
  m_RotationCurves: []
  m_CompressedRotationCurves: []
  m_EulerCurves: []
  m_PositionCurves: []
  m_ScaleCurves: []
  m_FloatCurves: []
  m_PPtrCurves:
  - curve:
    - time: 0
      value: {fileID: -7948099834635590675, guid: 3915eccbe20d96e4b83c699c3e187054,
        type: 3}
    - time: 0.15
      value: {fileID: 8805824515967039559, guid: 3915eccbe20d96e4b83c699c3e187054,
        type: 3}
    - time: 0.3
      value: {fileID: 1706545565218659250, guid: 3915eccbe20d96e4b83c699c3e187054,
        type: 3}
    - time: 0.45000002
      value: {fileID: -2481421835760707158, guid: 3915eccbe20d96e4b83c699c3e187054,
        type: 3}
    - time: 0.6
      value: {fileID: 4490530203787416363, guid: 3915eccbe20d96e4b83c699c3e187054,
        type: 3}
    - time: 0.75
      value: {fileID: 8997050744720952492, guid: 3915eccbe20d96e4b83c699c3e187054,
        type: 3}
    - time: 0.9
      value: {fileID: 2179345274954379746, guid: 3915eccbe20d96e4b83c699c3e187054,
        type: 3}
    - time: 1.05
      value: {fileID: -4441545385269612914, guid: 3915eccbe20d96e4b83c699c3e187054,
        type: 3}
    - time: 1.1833333
      value: {fileID: -4441545385269612914, guid: 3915eccbe20d96e4b83c699c3e187054,
        type: 3}
    attribute: m_Sprite
    path: 
    classID: 212
    script: {fileID: 0}
  m_SampleRate: 60
  m_WrapMode: 2
  m_Bounds:
    m_Center: {x: 0, y: 0, z: 0}
    m_Extent: {x: 0, y: 0, z: 0}
  m_ClipBindingConstant:
    genericBindings:
    - serializedVersion: 2
      path: 0
      attribute: 0
      script: {fileID: 0}
      typeID: 212
      customType: 23
      isPPtrCurve: 1
    pptrCurveMapping:
    - {fileID: -7948099834635590675, guid: 3915eccbe20d96e4b83c699c3e187054, type: 3}
    - {fileID: 8805824515967039559, guid: 3915eccbe20d96e4b83c699c3e187054, type: 3}
    - {fileID: 1706545565218659250, guid: 3915eccbe20d96e4b83c699c3e187054, type: 3}
    - {fileID: -2481421835760707158, guid: 3915eccbe20d96e4b83c699c3e187054, type: 3}
    - {fileID: 4490530203787416363, guid: 3915eccbe20d96e4b83c699c3e187054, type: 3}
    - {fileID: 8997050744720952492, guid: 3915eccbe20d96e4b83c699c3e187054, type: 3}
    - {fileID: 2179345274954379746, guid: 3915eccbe20d96e4b83c699c3e187054, type: 3}
    - {fileID: -4441545385269612914, guid: 3915eccbe20d96e4b83c699c3e187054, type: 3}
    - {fileID: -4441545385269612914, guid: 3915eccbe20d96e4b83c699c3e187054, type: 3}
  m_AnimationClipSettings:
    serializedVersion: 2
    m_AdditiveReferencePoseClip: {fileID: 0}
    m_AdditiveReferencePoseTime: 0
    m_StartTime: 0
    m_StopTime: 1.1999999
    m_OrientationOffsetY: 0
    m_Level: 0
    m_CycleOffset: 0
    m_HasAdditiveReferencePose: 0
    m_LoopTime: 1
    m_LoopBlend: 0
    m_LoopBlendOrientation: 0
    m_LoopBlendPositionY: 0
    m_LoopBlendPositionXZ: 0
    m_KeepOriginalOrientation: 0
    m_KeepOriginalPositionY: 1
    m_KeepOriginalPositionXZ: 0
    m_HeightFromFeet: 0
    m_Mirror: 0
  m_EditorCurves: []
  m_EulerEditorCurves: []
  m_HasGenericRootTransform: 0
  m_HasMotionFloatCurves: 0
  m_Events: []
